Practical Crawling
…
---

## Tidy'd Data Output

```r
tidy_histo
```

```
## # A tibble: 5,040 × 3
##               deployid        datadatetime percent_dry
##                  <chr>              <dttm>       <chr>
## 1  PV2016_3033_14U0350 2016-09-30 02:00:00        <NA>
## 2  PV2016_3033_14U0350 2016-09-30 03:00:00        <NA>
## 3  PV2016_3033_14U0350 2016-09-30 04:00:00          98
## 4  PV2016_3033_14U0350 2016-09-30 05:00:00         100
## 5  PV2016_3033_14U0350 2016-09-30 06:00:00         100
## 6  PV2016_3033_14U0350 2016-09-30 07:00:00          40
## 7  PV2016_3033_14U0350 2016-09-30 08:00:00          10
## 8  PV2016_3033_14U0350 2016-09-30 09:00:00           3
## 9  PV2016_3033_14U0350 2016-09-30 10:00:00           3
## 10 PV2016_3033_14U0350 2016-09-30 11:00:00           0
## # ... with 5,030 more rows
```
…
---
## `filter()`

```r
flights %>% filter(., month == 1, day == 1)
```

```
## # A tibble: 842 × 19
##     year month   day dep_time sched_dep_time dep_delay arr_time
##    <int> <int> <int>    <int>          <int>     <dbl>    <int>
## 1   2013     1     1      517            515         2      830
## 2   2013     1     1      533            529         4      850
## 3   2013     1     1      542            540         2      923
## 4   2013     1     1      544            545        -1     1004
## 5   2013     1     1      554            600        -6      812
## 6   2013     1     1      554            558        -4      740
## 7   2013     1     1      555            600        -5      913
## 8   2013     1     1      557            600        -3      709
## 9   2013     1     1      557            600        -3      838
## 10  2013     1     1      558            600        -2      753
## # ... with 832 more rows, and 12 more variables: sched_arr_time <int>,
## #   arr_delay <dbl>, carrier <chr>, flight <int>, tailnum <chr>,
## #   origin <chr>, dest <chr>, air_time <dbl>, distance <dbl>, hour <dbl>,
## #   minute <dbl>, time_hour <dttm>
```

---

##  `select()`

```r
flights %>% select(.,year, month, day)
```

```
## # A tibble: 336,776 × 3
##     year month   day
##    <int> <int> <int>
## 1   2013     1     1
## 2   2013     1     1
## 3   2013     1     1
## 4   2013     1     1
## 5   2013     1     1
## 6   2013     1     1
## 7   2013     1     1
## 8   2013     1     1
## 9   2013     1     1
## 10  2013     1     1
## # ... with 336,766 more rows
```

---

## `mutate()`

```r
flights %>% mutate(.,
  gain = arr_delay - dep_delay,
  speed = distance / air_time * 60)
```

```
## # A tibble: 336,776 × 21
##     year month   day dep_time sched_dep_time dep_delay arr_time
##    <int> <int> <int>    <int>          <int>     <dbl>    <int>
## 1   2013     1     1      517            515         2      830
## 2   2013     1     1      533            529         4      850
## 3   2013     1     1      542            540         2      923
## 4   2013     1     1      544            545        -1     1004
## 5   2013     1     1      554            600        -6      812
## 6   2013     1     1      554            558        -4      740
## 7   2013     1     1      555            600        -5      913
## 8   2013     1     1      557            600        -3      709
## 9   2013     1     1      557            600        -3      838
## 10  2013     1     1      558            600        -2      753
## # ... with 336,766 more rows, and 14 more variables: sched_arr_time <int>,
## #   arr_delay <dbl>, carrier <chr>, flight <int>, tailnum <chr>,
## #   origin <chr>, dest <chr>, air_time <dbl>, distance <dbl>, hour <dbl>,
## #   minute <dbl>, time_hour <dttm>, gain <dbl>, speed <dbl>
```
…
