A Guide to Crawl-ing with R
…
Examining tbl_percent, we see that the layout is now more vertical and more in line with tidy principles

tbl_percent

## # A tibble: 5,564 × 3
##               deployid           date_hour percent_dry
##                  <chr>              <dttm>       <dbl>
## 1  PV2016_3019_16A0222 2016-09-21 02:00:00          NA
## 2  PV2016_3019_16A0222 2016-09-21 03:00:00          NA
## 3  PV2016_3019_16A0222 2016-09-21 04:00:00         100
## 4  PV2016_3019_16A0222 2016-09-21 05:00:00         100
## 5  PV2016_3019_16A0222 2016-09-21 06:00:00         100
## 6  PV2016_3019_16A0222 2016-09-21 07:00:00          30
## 7  PV2016_3019_16A0222 2016-09-21 08:00:00          20
## 8  PV2016_3019_16A0222 2016-09-21 09:00:00          10
## 9  PV2016_3019_16A0222 2016-09-21 10:00:00          10
## 10 PV2016_3019_16A0222 2016-09-21 11:00:00          10
## # ... with 5,554 more rows
…
